{
  "JWT": {
    "secret": "IoyB4LGyJ9"
  },

  "walletMicroservice": {
    "host": "localhost",
    "schema": "http",
    "port": 8001
  },

  "gameMicroservice": {
    "host": "localhost",
    "schema": "http",
    "port": 8003
  }
}